\version "2.22.0"
\include "lyric-notation.ily"

\lyricNotation
\lyricmode {
  \rhColor a green
  \rhColor b blue
  \rhColor c darkgreen
  \rhColor d darkblue
Nig\rh a1 -- gas\rh a2 be\rh a3 playin',\rh b1 yeah\rh b2
In\rh a1 -- dus\rh a2 -- try\rh a3 games,\rh b1 yeah\rh b2
Rap -- pin' but they not in love with it
Think\rh c1 it's\rh c2 a\rh c3 shame,\rh b1 yeah\rh b2
I'm 'bout to pop on some o -- ther shit
Think\rh c1 it's\rh c2 a\rh c3 game?\rh b1
They don't con -- trol where I\rh c3 land\rh d1
Roy -- al flush, nig -- ga the cards in\rh c2 my\rh c3 hand\rh d1 }
\lyricmode {
r8 \tuplet 3/2 8 { `n-ih16 g-ax-z b-iy } <>`pl-ey-n8 y-ae '
r8 \tuplet 3/2 8 { `Q-ih-n16 d-ax-s tr-iy } `g-ey-mz8 y-ae ' |
r8 \tuplet 3/2 8 { `r-ae16 p-ih-n b-ah-t `D-ey n-aa-t Q-ih-n `l-ah-v w-ih-D Q-ih-t } '
r8 \tuplet 3/2 8 { `T-iy-Gk16 Q-ih-ts Q-ah } `S-ey-m8 y-ae8 '
r8 \tuplet 3/2 8 { `Q-ay-m16 b-aw-t t-uw `p-aa-p Q-aa-n s-ah-m `Q-ah D-er S-ih-t }
r8 \tuplet 3/2 8 { `T-iy-Gk16 Q-ih-ts Q-ah } `g-ey-m8 ' r8
\tuplet 3/2 8 { `D-ey16 d-ow-nt k-ah-n `tr-el w-eh-r Q-ay } `l-ae-nd8 ' r8
\tuplet 3/2 8 { `r-oy16 y-el fl-ah-S `n-ih g-ah D-ah `k-aa-rdz Q-ih-n m-ay } `h-ae-nd8
}
